<svg width="23" height="18" viewBox="0 0 23 18" fill="none" xmlns="http://www.w3.org/2000/svg">
<path d="M19.3602 11.5346C19.2522 10.7843 18.6728 10.1993 17.9269 10.0249C15.0278 9.34538 14.301 7.67588 14.1784 5.82413C13.6643 5.7285 12.7497 5.625 11.1972 5.625C9.64466 5.625 8.73004 5.7285 8.21591 5.82413C8.09329 7.67588 7.36654 9.34538 4.46741 10.0249C3.72154 10.2004 3.14216 10.7843 3.03416 11.5346L2.47504 15.4069C2.27816 16.7704 3.27941 18 4.67216 18H17.7222C19.1138 18 20.1162 16.7704 19.9193 15.4069L19.3602 11.5346ZM11.1972 15.1785C9.62779 15.1785 8.35541 13.9185 8.35541 12.366C8.35541 10.8135 9.62779 9.5535 11.1972 9.5535C12.7665 9.5535 14.0389 10.8135 14.0389 12.366C14.0389 13.9185 12.7654 15.1785 11.1972 15.1785ZM22.3909 4.5C22.3639 2.8125 18.0687 0.001125 11.1972 0C4.32454 0.001125 0.0292855 2.8125 0.00341053 4.5C-0.0224645 6.1875 0.0270356 8.3835 2.85529 8.01787C6.16391 7.58925 5.96029 6.43387 5.96029 4.78237C5.96029 3.63037 8.65129 3.3525 11.1972 3.3525C13.743 3.3525 16.4329 3.63037 16.434 4.78237C16.434 6.43387 16.2304 7.58925 19.539 8.01787C22.3662 8.3835 22.4168 6.1875 22.3909 4.5Z" fill="#CBCBCF"/>
</svg>
